[api-updater (non-obsolete-error-filter)] 11/01/2022 19:39:51 : Starting C:/Program Files/Unity/Hub/Editor/2020.3.18f1/Editor/Data/Tools/ScriptUpdater/APIUpdater.NonObsoleteApiUpdaterDetector.exe
[api-updater (non-obsolete-error-filter)] 
----------------------------------
jit/startup time      : 820,2823ms
moved types parse time: 75ms
candidates parse time : 2ms
C# parse time         : 346ms
candidates check time : 51ms
console write time    : 0ms

[api-updater (non-obsolete-error-filter)] 11/01/2022 19:40:12 : Starting C:/Program Files/Unity/Hub/Editor/2020.3.18f1/Editor/Data/Tools/ScriptUpdater/APIUpdater.NonObsoleteApiUpdaterDetector.exe
[api-updater (non-obsolete-error-filter)] 
----------------------------------
jit/startup time      : 100,0109ms
moved types parse time: 66ms
candidates parse time : 1ms
C# parse time         : 237ms
candidates check time : 66ms
console write time    : 0ms

[api-updater (non-obsolete-error-filter)] 11/01/2022 19:54:03 : Starting C:/Program Files/Unity/Hub/Editor/2020.3.18f1/Editor/Data/Tools/ScriptUpdater/APIUpdater.NonObsoleteApiUpdaterDetector.exe
[api-updater (non-obsolete-error-filter)] 
----------------------------------
jit/startup time      : 79,8947ms
moved types parse time: 60ms
candidates parse time : 1ms
C# parse time         : 215ms
candidates check time : 57ms
console write time    : 0ms

[api-updater (non-obsolete-error-filter)] 11/01/2022 21:36:27 : Starting C:/Program Files/Unity/Hub/Editor/2020.3.18f1/Editor/Data/Tools/ScriptUpdater/APIUpdater.NonObsoleteApiUpdaterDetector.exe
[api-updater (non-obsolete-error-filter)] 
----------------------------------
jit/startup time      : 130,2172ms
moved types parse time: 79ms
candidates parse time : 1ms
C# parse time         : 307ms
candidates check time : 59ms
console write time    : 0ms

[api-updater (non-obsolete-error-filter)] 12/01/2022 19:31:17 : Starting C:/Program Files/Unity/Hub/Editor/2020.3.18f1/Editor/Data/Tools/ScriptUpdater/APIUpdater.NonObsoleteApiUpdaterDetector.exe
[api-updater (non-obsolete-error-filter)] 
----------------------------------
jit/startup time      : 925,8965ms
moved types parse time: 65ms
candidates parse time : 1ms
C# parse time         : 380ms
candidates check time : 62ms
console write time    : 0ms

[api-updater (non-obsolete-error-filter)] 12/01/2022 19:31:23 : Starting C:/Program Files/Unity/Hub/Editor/2020.3.18f1/Editor/Data/Tools/ScriptUpdater/APIUpdater.NonObsoleteApiUpdaterDetector.exe
[api-updater (non-obsolete-error-filter)] 
----------------------------------
jit/startup time      : 89,0191ms
moved types parse time: 63ms
candidates parse time : 1ms
C# parse time         : 234ms
candidates check time : 52ms
console write time    : 0ms

[api-updater (non-obsolete-error-filter)] 12/01/2022 20:00:04 : Starting C:/Program Files/Unity/Hub/Editor/2020.3.18f1/Editor/Data/Tools/ScriptUpdater/APIUpdater.NonObsoleteApiUpdaterDetector.exe
[api-updater (non-obsolete-error-filter)] 
----------------------------------
jit/startup time      : 99,7835ms
moved types parse time: 63ms
candidates parse time : 1ms
C# parse time         : 248ms
candidates check time : 49ms
console write time    : 0ms

[api-updater (non-obsolete-error-filter)] 12/01/2022 22:16:35 : Starting C:/Program Files/Unity/Hub/Editor/2020.3.18f1/Editor/Data/Tools/ScriptUpdater/APIUpdater.NonObsoleteApiUpdaterDetector.exe
[api-updater (non-obsolete-error-filter)] 
----------------------------------
jit/startup time      : 794,2825ms
moved types parse time: 64ms
candidates parse time : 1ms
C# parse time         : 326ms
candidates check time : 52ms
console write time    : 0ms

[api-updater (non-obsolete-error-filter)] 12/01/2022 22:16:36 : Starting C:/Program Files/Unity/Hub/Editor/2020.3.18f1/Editor/Data/Tools/ScriptUpdater/APIUpdater.NonObsoleteApiUpdaterDetector.exe
[api-updater (non-obsolete-error-filter)] 
----------------------------------
jit/startup time      : 108,1025ms
moved types parse time: 77ms
candidates parse time : 2ms
C# parse time         : 262ms
candidates check time : 55ms
console write time    : 0ms

[api-updater (non-obsolete-error-filter)] 12/01/2022 22:17:32 : Starting C:/Program Files/Unity/Hub/Editor/2020.3.18f1/Editor/Data/Tools/ScriptUpdater/APIUpdater.NonObsoleteApiUpdaterDetector.exe
[api-updater (non-obsolete-error-filter)] 
----------------------------------
jit/startup time      : 98,6991ms
moved types parse time: 61ms
candidates parse time : 1ms
C# parse time         : 227ms
candidates check time : 49ms
console write time    : 0ms

[api-updater (non-obsolete-error-filter)] 12/01/2022 22:17:51 : Starting C:/Program Files/Unity/Hub/Editor/2020.3.18f1/Editor/Data/Tools/ScriptUpdater/APIUpdater.NonObsoleteApiUpdaterDetector.exe
[api-updater (non-obsolete-error-filter)] 
----------------------------------
jit/startup time      : 90,2964ms
moved types parse time: 73ms
candidates parse time : 1ms
C# parse time         : 255ms
candidates check time : 52ms
console write time    : 0ms

[api-updater (non-obsolete-error-filter)] 12/01/2022 22:19:05 : Starting C:/Program Files/Unity/Hub/Editor/2020.3.18f1/Editor/Data/Tools/ScriptUpdater/APIUpdater.NonObsoleteApiUpdaterDetector.exe
[api-updater (non-obsolete-error-filter)] 
----------------------------------
jit/startup time      : 99,16ms
moved types parse time: 59ms
candidates parse time : 1ms
C# parse time         : 224ms
candidates check time : 65ms
console write time    : 0ms

[api-updater (non-obsolete-error-filter)] 13/01/2022 0:13:10 : Starting C:/Program Files/Unity/Hub/Editor/2020.3.18f1/Editor/Data/Tools/ScriptUpdater/APIUpdater.NonObsoleteApiUpdaterDetector.exe
[api-updater (non-obsolete-error-filter)] 
----------------------------------
jit/startup time      : 100,8239ms
moved types parse time: 61ms
candidates parse time : 1ms
C# parse time         : 250ms
candidates check time : 56ms
console write time    : 0ms

[api-updater (non-obsolete-error-filter)] 13/01/2022 13:53:48 : Starting C:/Program Files/Unity/Hub/Editor/2020.3.18f1/Editor/Data/Tools/ScriptUpdater/APIUpdater.NonObsoleteApiUpdaterDetector.exe
[api-updater (non-obsolete-error-filter)] 
----------------------------------
jit/startup time      : 813,1015ms
moved types parse time: 64ms
candidates parse time : 1ms
C# parse time         : 295ms
candidates check time : 48ms
console write time    : 0ms

[api-updater (non-obsolete-error-filter)] 13/01/2022 13:53:57 : Starting C:/Program Files/Unity/Hub/Editor/2020.3.18f1/Editor/Data/Tools/ScriptUpdater/APIUpdater.NonObsoleteApiUpdaterDetector.exe
[api-updater (non-obsolete-error-filter)] 
----------------------------------
jit/startup time      : 78,12ms
moved types parse time: 57ms
candidates parse time : 1ms
C# parse time         : 232ms
candidates check time : 58ms
console write time    : 0ms

[api-updater (non-obsolete-error-filter)] 13/01/2022 13:55:50 : Starting C:/Program Files/Unity/Hub/Editor/2020.3.18f1/Editor/Data/Tools/ScriptUpdater/APIUpdater.NonObsoleteApiUpdaterDetector.exe
[api-updater (non-obsolete-error-filter)] 
----------------------------------
jit/startup time      : 131,5538ms
moved types parse time: 62ms
candidates parse time : 1ms
C# parse time         : 223ms
candidates check time : 48ms
console write time    : 0ms

[api-updater (non-obsolete-error-filter)] 13/01/2022 13:57:28 : Starting C:/Program Files/Unity/Hub/Editor/2020.3.18f1/Editor/Data/Tools/ScriptUpdater/APIUpdater.NonObsoleteApiUpdaterDetector.exe
[api-updater (non-obsolete-error-filter)] 
----------------------------------
jit/startup time      : 96,7506ms
moved types parse time: 60ms
candidates parse time : 1ms
C# parse time         : 267ms
candidates check time : 58ms
console write time    : 0ms

[api-updater (non-obsolete-error-filter)] 13/01/2022 13:57:40 : Starting C:/Program Files/Unity/Hub/Editor/2020.3.18f1/Editor/Data/Tools/ScriptUpdater/APIUpdater.NonObsoleteApiUpdaterDetector.exe
[api-updater (non-obsolete-error-filter)] 
----------------------------------
jit/startup time      : 89,1504ms
moved types parse time: 71ms
candidates parse time : 1ms
C# parse time         : 232ms
candidates check time : 68ms
console write time    : 0ms

